Karat Sidhu - TidyModels - XGBoost
…
XGBoost grid

xgb_grid <- grid_latin_hypercube(
  tree_depth(),
  min_n(),
  loss_reduction(),
  sample_size = sample_prop(),
  finalize(mtry(), vb_train),
  learn_rate(),
  size = 30
)

xgb_grid

# A tibble: 30 × 6
   tree_depth min_n loss_reduction sample_size  mtry    learn_rate
        <int> <int>          <dbl>       <dbl> <int>         <dbl>
 1          3    14   0.000242           0.129     3 0.000786     
 2          5     2   0.00862            0.794    11 0.00154      
 3          1    21   0.0000000171       0.533     2 0.0000188    
 4         11    27  12.1                0.162     5 0.00000450   
 5          5    19   0.152              0.580     1 0.0155       
 6          5    23   0.0000150          0.590     9 0.0356       
 7          8    17   0.00000433         0.677     5 0.000347     
 8          6     9   0.630              0.287     8 0.00622      
 9          1     6   0.000460           0.201     6 0.000000146  
10          2    36   0.00315            0.625     8 0.00000000168
# … with 20 more rows
…
Results

collect_metrics(xgb_res)

# A tibble: 60 × 12
    mtry min_n tree_depth learn_rate loss_reduction sample_size .metric 
   <int> <int>      <int>      <dbl>          <dbl>       <dbl> <chr>   
 1     3    14          3 0.000786     0.000242           0.129 accuracy
 2     3    14          3 0.000786     0.000242           0.129 roc_auc 
 3    11     2          5 0.00154      0.00862            0.794 accuracy
 4    11     2          5 0.00154      0.00862            0.794 roc_auc 
 5     2    21          1 0.0000188    0.0000000171       0.533 accuracy
 6     2    21          1 0.0000188    0.0000000171       0.533 roc_auc 
 7     5    27         11 0.00000450  12.1                0.162 accuracy
 8     5    27         11 0.00000450  12.1                0.162 roc_auc 
 9     1    19          5 0.0155       0.152              0.580 accuracy
10     1    19          5 0.0155       0.152              0.580 roc_auc 
# … with 50 more rows, and 5 more variables: .estimator <chr>, mean <dbl>,
#   n <int>, std_err <dbl>, .config <chr>
…
