Karat Sidhu - Naive Bayes with Tidymodels
…
netflix<- netflix  |> slice_head(n = 600)

Exploratory data analysis

Code

counts <-
  netflix |>
  distinct(show_id, .keep_all = TRUE) |>
  unnest_tokens(words, description) |>
  count(type, words, sort = TRUE)

counts

# A tibble: 5,261 × 3
   type    words     n
   <chr>   <chr> <int>
 1 Movie   a       597
 2 Movie   the     368
 3 Movie   to      318
 4 TV Show a       274
 5 Movie   and     241
 6 Movie   of      221
 7 Movie   in      193
 8 TV Show the     191
 9 TV Show and     185
10 TV Show to      152
# … with 5,251 more rows
…
netflix_split <-
  netflix |>
  distinct(show_id, .keep_all = TRUE) |>
  select(type, description) |>
  initial_split(prop = 0.8, strata = type)

netflix_train <- training(netflix_split)
netflix_test <- testing(netflix_split)

set.seed(234)
netflix_folds <- bootstraps(netflix_train, strata = type)
netflix_folds

# Bootstrap sampling using stratification 
# A tibble: 25 × 2
   splits            id         
   <list>            <chr>      
 1 <split [479/173]> Bootstrap01
 2 <split [479/185]> Bootstrap02
 3 <split [479/174]> Bootstrap03
 4 <split [479/165]> Bootstrap04
 5 <split [479/172]> Bootstrap05
 6 <split [479/175]> Bootstrap06
 7 <split [479/177]> Bootstrap07
 8 <split [479/173]> Bootstrap08
 9 <split [479/180]> Bootstrap09
10 <split [479/181]> Bootstrap10
# … with 15 more rows
…
