Doing Bayesian Lead-210 interpretation | Geographer Freelance
…
Paleolimnologists have been using the Constant Rate of Supply (CRS) and Constant Initial Concentration (CIC) model to interpret 210Pb dates for a very long time. Some variations like propagating error using a Monte Carlo simulation (Binford 1990 and Sanchez-Cabeza et al. 2014) instead of the usual “quadrature” method have been used, but for the most part, we have been interpreting lead-210 dates the same way since 1978 (40 years!).

We can definitely do better. Similar to how Bacon revolutionized the 14C dating world, Bayesian methods are the future of 210Pb dating as well. Bayesian methods are a bit hard to understand, but essentially, they involve creating millions and millions of age-depth relationships, only selecting the ones that are probable given some constraints. In this case, the constraints are that we have 210Pb activities that were measured (with some error), 210Pb decays at a known rate (if we’re being technical there’s error here too, but it’s always ignored), and the sedimentation rate of a given slice is related to the sedimentation rate of the previous slice. You can imagine that it would be possible to “check” any age-depth model to see if it actually would produce the 210Pb activities that you measured. Bayesian age-depth model creation is that. But millions and millions of times, keeping only the age-depth models that make sense.

In 2018, the first (to my knowledge) Bayesian 210Pb interpretation paper was published, and included a program to do the interpretation. Having just wrote an R package implementing the CIC and CRS models, I thought I’d give it a go! It turns out that the program as written is difficult to use (the authors acknowledge that this version is just a draft, and the paper indicates that it may be translated to C++ in the future). Still, it’s a massive step forward for those of us that rely on 210Pb dating (which is almost all of us paleolimnologists).

Some data

I’ll use the Alta Lake 210Pb measurements I have from my first published paper, which also happens to be the sample dataset for the pb210 package.

library(pb210)
alta_lake_pb210

## # A tibble: 32 x 13
##    sample_id depth_cm total_pb210_Bq_… total_pb210_sd section_start_cm
##    <chr>        <dbl>            <dbl>          <dbl>            <dbl>
##  1 AL-GC2-0      0.25            338.            8.71              0  
##  2 AL-GC2-0…     0.75             NA            NA                 0.5
##  3 AL-GC2-1      1.25            415.           11.8               1  
##  4 AL-GC2-1…     1.75            411.           11.0               1.5
##  5 AL-GC2-2      2.5             378.           10.5               2  
##  6 AL-GC2-3      3.5             237.            7.79              3  
##  7 AL-GC2-4      4.5             146.            5.25              4  
##  8 AL-GC2-5      5.5             117.            4.61              5  
##  9 AL-GC2-6      6.5              67.5           3.86              6  
## 10 AL-GC2-7      7.5              54.6           3.44              7  
## # … with 22 more rows, and 8 more variables: section_end_cm <dbl>,
## #   water_percent <dbl>, slice_mass_g <dbl>, dry_density_cm3 <dbl>,
## #   c_percent <dbl>, n_percent <dbl>, published_age_yr <dbl>,
## #   published_age_sd <dbl>
…
alta_lake_ages <- alta_lake_pb210 %>%
  mutate(plum_raw = map(depth_cm, plum_ages)) %>%
  unnest()

alta_lake_ages %>%
  select(depth_cm, mean_age, lower_age, upper_age)

## # A tibble: 32 x 4
##    depth_cm mean_age lower_age upper_age
##       <dbl>    <dbl>     <dbl>     <dbl>
##  1     0.25     2.48      2.22      2.69
##  2     0.75     7.43      6.65      8.08
##  3     1.25    16.1      14.3      17.2 
##  4     1.75    24.9      21.9      26.8 
##  5     2.5     35.7      30.5      38.7 
##  6     3.5     49.5      40.6      54.8 
##  7     4.5     64.6      50.2      73.5 
##  8     5.5     82.7      59.1      98.6 
##  9     6.5    100.       65.3     131.  
## 10     7.5    116.       69.2     177.  
## # … with 22 more rows
…
