Karat Sidhu - TidyModels - SVM & Random Forests
…
TidyText words analysis

Lets use the tidytext() library to check what are some of the most common words used to describe the flavor of each chocolate in the data-set.

# split the characteristics column into words using tidytext, and make a new column called word instead of the original.

tidy_chocolate <-
  chocolate %>%
  unnest_tokens(word, most_memorable_characteristics)

tidy_chocolate |> 
  group_by(word) |> 
  summarise(total = n()) |> arrange(desc(total))

# A tibble: 547 × 2
   word    total
   <chr>   <int>
 1 cocoa     419
 2 sweet     318
 3 nutty     278
 4 fruit     273
 5 roasty    228
 6 mild      226
 7 sour      208
 8 earthy    199
 9 creamy    189
10 intense   178
# … with 537 more rows
…
We’ll use textrecipes package to tokenize “most_memorable_characteristics” wrt “ratings” and look at the 100 most common words used (here they are called tokens).All of this is done on the

library(textrecipes)

choco_rec <-
  recipe(rating ~ most_memorable_characteristics, data = choco_train) %>%
  step_tokenize(most_memorable_characteristics) %>%
  step_tokenfilter(most_memorable_characteristics, max_tokens = 100) %>% # 100 most common words
  step_tfidf(most_memorable_characteristics) # step frequeence df

# looking at the tokenized data
prep(choco_rec) %>% bake(new_data = NULL)

# A tibble: 1,896 × 101
   rating tfidf_most_memorab… tfidf_most_memo… tfidf_most_memo… tfidf_most_memo…
    <dbl>               <dbl>            <dbl>            <dbl>            <dbl>
 1   3                   0                   0                0                0
 2   2.75                0                   0                0                0
 3   3                   0                   0                0                0
 4   3                   0                   0                0                0
 5   2.75                0                   0                0                0
 6   3                   1.38                0                0                0
 7   2.75                0                   0                0                0
 8   2.5                 0                   0                0                0
 9   2.75                0                   0                0                0
10   3                   0                   0                0                0
# … with 1,886 more rows, and 96 more variables:
#   tfidf_most_memorable_characteristics_base <dbl>,
#   tfidf_most_memorable_characteristics_basic <dbl>,
#   tfidf_most_memorable_characteristics_berry <dbl>,
#   tfidf_most_memorable_characteristics_bitter <dbl>,
#   tfidf_most_memorable_characteristics_black <dbl>,
#   tfidf_most_memorable_characteristics_bland <dbl>, …
…
