Karat Sidhu - TidyModels - PCA and UMAP
…
ℹ Use `spec()` to retrieve the full column specification for this data.
ℹ Specify the column types or set `show_col_types = FALSE` to quiet this message.

Data Cleaning and Exploratory Data Analysis

Preliminary look at the data

boston_cocktails

# A tibble: 3,643 × 6
   name            category           row_id ingredient_numb… ingredient measure
   <chr>           <chr>               <dbl>            <dbl> <chr>      <chr>  
 1 Gauguin         Cocktail Classics       1                1 Light Rum  2 oz   
 2 Gauguin         Cocktail Classics       1                2 Passion F… 1 oz   
 3 Gauguin         Cocktail Classics       1                3 Lemon Jui… 1 oz   
 4 Gauguin         Cocktail Classics       1                4 Lime Juice 1 oz   
 5 Fort Lauderdale Cocktail Classics       2                1 Light Rum  1 1/2 …
 6 Fort Lauderdale Cocktail Classics       2                2 Sweet Ver… 1/2 oz 
 7 Fort Lauderdale Cocktail Classics       2                3 Juice of … 1/4 oz 
 8 Fort Lauderdale Cocktail Classics       2                4 Juice of … 1/4 oz 
 9 Apple Pie       Cordials and Liqu…      3                1 Apple sch… 3 oz   
10 Apple Pie       Cordials and Liqu…      3                2 Cinnamon … 1 oz   
# … with 3,633 more rows

So the PCA should be carried out for the “name” field and looking at the relation between the cocktail and the incredients, category and the measured amount of each ingredient used.

Most Common Ingredients

boston_cocktails |>
  count(ingredient, sort = TRUE)

# A tibble: 569 × 2
   ingredient            n
   <chr>             <int>
 1 Gin                 176
 2 Fresh lemon juice   138
 3 Simple Syrup        115
 4 Vodka               114
 5 Light Rum           113
 6 Dry Vermouth        107
 7 Fresh Lime Juice    107
 8 Triple Sec          107
 9 Powdered Sugar       90
10 Grenadine            85
# … with 559 more rows
…
Warning: 20 parsing failures.
row col expected    actual
637  -- a number For glass
671  -- a number For glass
794  -- a number For glass
878  -- a number For glass
928  -- a number For glass
... ... ........ .........
See problems(...) for more details.

cocktails

# A tibble: 2,542 × 7
   name       category row_id ingredient_numb… ingredient measure measure_number
   <chr>      <chr>     <dbl>            <dbl> <chr>      <chr>            <dbl>
 1 Gauguin    Cocktai…      1                1 light rum  2 oz              2   
 2 Gauguin    Cocktai…      1                3 lemon jui… 1 oz              1   
 3 Gauguin    Cocktai…      1                4 lime juice 1 oz              1   
 4 Fort Laud… Cocktai…      2                1 light rum  1.5 oz            1.5 
 5 Fort Laud… Cocktai…      2                2 sweet ver… .5 oz             0.5 
 6 Fort Laud… Cocktai…      2                3 orange ju… .25 oz            0.25
 7 Fort Laud… Cocktai…      2                4 lime juice .25 oz            0.25
 8 Cuban Coc… Cocktai…      4                1 lime juice .5 oz             0.5 
 9 Cuban Coc… Cocktai…      4                2 powdered … .5 oz             0.5 
10 Cuban Coc… Cocktai…      4                3 light rum  2 oz              2   
# … with 2,532 more rows

New Dataframe with a “wide” format

We’re now close to beginning our analysis. However, the data is in long format and PCA prefers to get the data wider. So we’ll pivot_wide to make the analysis easier.

cocktails_df <- cocktails |> 
  select(-ingredient_number, -row_id, -measure) |> 
  pivot_wider(names_from = ingredient, values_from = measure_number, values_fill = 0) |> 
  janitor::clean_names() |> 
  na.omit()

cocktails_df

# A tibble: 937 × 42
   name    category light_rum lemon_juice lime_juice sweet_vermouth orange_juice
   <chr>   <chr>        <dbl>       <dbl>      <dbl>          <dbl>        <dbl>
 1 Gauguin Cocktai…      2           1          1               0           0   
 2 Fort L… Cocktai…      1.5         0          0.25            0.5         0.25
 3 Cuban … Cocktai…      2           0          0.5             0           0   
 4 Cool C… Cocktai…      0           0          0               0           1   
 5 John C… Whiskies      0           1          0               0           0   
 6 Cherry… Cocktai…      1.25        0          0               0           0   
 7 Casa B… Cocktai…      2           0          1.5             0           0   
 8 Caribb… Cocktai…      0.5         0          0               0           0   
 9 Amber … Cordial…      0           0.25       0               0           0   
10 The Jo… Whiskies      0           0.5        0               0           0   
# … with 927 more rows, and 35 more variables: powdered_sugar <dbl>,
#   dark_rum <dbl>, cranberry_juice <dbl>, pineapple_juice <dbl>,
#   bourbon_whiskey <dbl>, simple_syrup <dbl>, cherry_flavored_brandy <dbl>,
#   light_cream <dbl>, triple_sec <dbl>, maraschino <dbl>, amaretto <dbl>,
#   grenadine <dbl>, apple_brandy <dbl>, brandy <dbl>, gin <dbl>,
#   anisette <dbl>, dry_vermouth <dbl>, apricot_flavored_brandy <dbl>,
#   bitters <dbl>, straight_rye_whiskey <dbl>, benedictine <dbl>, …
…
Operations:

Centering and scaling for light_rum, lemon_juice, lime_juice, sweet_vermo... [trained]
PCA extraction with light_rum, lemon_juice, lime_juice, sweet_vermou... [trained]

The prep object now doesn’t contain any output, and we need to tidy the object to read it. List object contains the PCA “results” and components on the 2nd place under “term_info” (open it in the console to see details).

PCA Table

tidied_pca <- tidy(pca_prep, 2)

tidied_pca

# A tibble: 1,600 × 4
   terms             value component id       
   <chr>             <dbl> <chr>     <chr>    
 1 light_rum        0.163  PC1       pca_yx0os
 2 lemon_juice     -0.0140 PC1       pca_yx0os
 3 lime_juice       0.224  PC1       pca_yx0os
 4 sweet_vermouth  -0.0661 PC1       pca_yx0os
 5 orange_juice     0.0308 PC1       pca_yx0os
 6 powdered_sugar  -0.476  PC1       pca_yx0os
 7 dark_rum         0.124  PC1       pca_yx0os
 8 cranberry_juice  0.0954 PC1       pca_yx0os
 9 pineapple_juice  0.119  PC1       pca_yx0os
10 bourbon_whiskey  0.0963 PC1       pca_yx0os
# … with 1,590 more rows
…
